Hyperparameter Tuning – lab-6
…
collect_metrics(model_params) |> 
  arrange(mean)

# A tibble: 75 × 9
   trees tree_depth learn_rate .metric .estimator  mean     n std_err .config   
   <int>      <int>      <dbl> <chr>   <chr>      <dbl> <int>   <dbl> <chr>     
 1   306         10    0.0149  mae     standard   0.235    10  0.0155 Preproces…
 2  1415          8    0.00317 mae     standard   0.236    10  0.0150 Preproces…
 3  1589         12    0.00993 mae     standard   0.237    10  0.0169 Preproces…
 4   842         12    0.0171  mae     standard   0.237    10  0.0173 Preproces…
 5  1090          6    0.0101  mae     standard   0.238    10  0.0146 Preproces…
 6   621          5    0.0371  mae     standard   0.238    10  0.0146 Preproces…
 7   977         11    0.0649  mae     standard   0.238    10  0.0173 Preproces…
 8  1483         15    0.00787 mae     standard   0.239    10  0.0174 Preproces…
 9   109          7    0.117   mae     standard   0.239    10  0.0165 Preproces…
10  1786         13    0.00562 mae     standard   0.240    10  0.0164 Preproces…
# ℹ 65 more rows
…
